{
  "project_info": {
    "project_number": "619893103186",
    "firebase_url": "https://easyfuel-104c6.firebaseio.com",
    "project_id": "easyfuel-104c6",
    "storage_bucket": "easyfuel-104c6.appspot.com"
  },
  "client": [
    {
      "client_info": {
        "mobilesdk_app_id": "1:619893103186:android:2958e6c27ffdfa0b",
        "android_client_info": {
          "package_name": "com.ufsj.ocs.projetoocs"
        }
      },
      "oauth_client": [
        {
          "client_id": "619893103186-pkjk2bobr74pj577agg9lig8m41s7sf5.apps.googleusercontent.com",
          "client_type": 1,
          "android_info": {
            "package_name": "com.ufsj.ocs.projetoocs",
            "certificate_hash": "1611b899e7d4a8ebab9700c1fda9137cf759631b"
          }
        },
        {
          "client_id": "619893103186-49139lde3ohust0d133296epinkmqqi9.apps.googleusercontent.com",
          "client_type": 3
        }
      ],
      "api_key": [
        {
          "current_key": "AIzaSyCDwG-bSyZvZ-wIXAp64nA_Q2ecekGw890"
        }
      ],
      "services": {
        "analytics_service": {
          "status": 1
        },
        "appinvite_service": {
          "status": 2,
          "other_platform_oauth_client": [
            {
              "client_id": "619893103186-49139lde3ohust0d133296epinkmqqi9.apps.googleusercontent.com",
              "client_type": 3
            }
          ]
        },
        "ads_service": {
          "status": 2
        }
      }
    }
  ],
  "configuration_version": "1"
}